Bermain dengan Data Google Maps - Engineer of words
…
# tambah kolom total durasi
place_unique <- place %>% 
  group_by(id) %>% 
  summarise(dur_acc_sec = sum(dur)) %>% 
  left_join(place_unique, ., by = "id")

Jika begini, kita kembalikan id ini ke habitat awalnya sebagai koordinat.

# spread id, jadikan data koordinat lagi seperti semula
place_unique <- separate(place_unique, id, c("lon", "lat"), sep=",")
place_unique$lon <- as.numeric(place_unique$lon)
place_unique$lat <- as.numeric(place_unique$lat)
print(place_unique)

## # A tibble: 305 x 5
##      lon   lat name                             freq dur_acc_sec
##    <dbl> <dbl> <chr>                           <int>       <dbl>
##  1  109. -6.93 MTs Islamiyah Waled                14     506890.
##  2  109. -6.86 Babakan                             2       2650.
##  3  107. -6.35 Universitas Gunadarma, Kampus E    27    2399120.
##  4  107. -6.35 Cafe Banby                          8     297442.
##  5  107. -6.34 Universitas Pancasila Station      69      59372.
##  6  107. -6.17 Harmoni                             1        326.
##  7  107. -6.19 Kebon Jeruk                         1        470.
##  8  107. -6.20 Intercon Plaza                      1      11007.
##  9  107. -6.28 Universitas Nasional                1      12955.
## 10  107. -6.28 Warnet Arios                        1      10370.
## # … with 295 more rows
…
