Contek Kode: Rute TransJakarta - Engineer of words
…
Kedua, menambahkan sistem koordinat referensi (CRS).

transjakarta_route <- transjakarta_route %>%
  as_tibble() %>%
  st_as_sf()
st_crs(transjakarta_route) <- 4326
transjakarta_route

## Simple feature collection with 222 features and 10 fields
## geometry type:  LINESTRING
## dimension:      XY
## bbox:           xmin: 106.7054 ymin: -6.3102 xmax: 106.9534 ymax: -6.10947
## geographic CRS: WGS 84
## # A tibble: 222 x 11
##    transport_id schedule_id corridor_id corridor_name corridor_color route_id
##    <chr>        <chr>       <chr>       <chr>         <chr>          <chr>   
##  1 idjkb_brt    idjkb_1     1           Blok M - Kota D02027         1.001   
##  2 idjkb_brt    idjkb_1     1           Blok M - Kota D02027         1.002   
##  3 idjkb_brt    idjkb_1     1           Blok M - Kota D02027         1.006   
##  4 idjkb_brt    idjkb_1     1           Blok M - Kota D02027         1.008   
##  5 idjkb_brt    idjkb_1     1           Blok M - Kota D02027         1.009   
##  6 idjkb_brt    idjkb_1     1           Blok M - Kota D02027         1.012   
##  7 idjkb_brt    idjkb_1     1           Blok M - Kota D02027         1.012B  
##  8 idjkb_brt    idjkb_1     1           Blok M - Kota D02027         1.014   
##  9 idjkb_brt    idjkb_1     1           Blok M - Kota D02027         1.205A  
## 10 idjkb_brt    idjkb_1     1           Blok M - Kota D02027         1.205B  
## # … with 212 more rows, and 5 more variables: route_name <chr>,
## #   direction <int>, validity <lgl>, is_hidden <lgl>, geometry <LINESTRING [°]>
…
## Simple feature collection with 222 features and 6 fields
## geometry type:  LINESTRING
## dimension:      XY
## bbox:           xmin: 106.7054 ymin: -6.3102 xmax: 106.9534 ymax: -6.10947
## geographic CRS: WGS 84
## # A tibble: 222 x 7
##    corridor_id route_name direction     n is_main is_main_reverse
##    <chr>       <chr>          <int> <int> <lgl>   <lgl>          
##  1 1           Blok M - …         1    13 TRUE    FALSE          
##  2 1           Kota - Bl…         2    12 FALSE   TRUE           
##  3 1           Kota - Ha…         2    12 FALSE   FALSE          
##  4 1           Kota - Bu…         2    12 FALSE   FALSE          
##  5 1           Blok M - …         1    13 FALSE   FALSE          
##  6 1           Kota - Mo…         2    12 FALSE   FALSE          
##  7 1           Monas - K…         1    13 FALSE   FALSE          
##  8 1           Kota - Du…         2    12 FALSE   FALSE          
##  9 1           Blok M - …         1    13 FALSE   FALSE          
## 10 1           Tosari - …         2    12 FALSE   FALSE          
## # … with 212 more rows, and 1 more variable: geometry <LINESTRING [°]>
…
